{
    "layer": "top",
    "position": "top",
    "mod": "dock",
    "exclusive": true,
    "passthrough": false,
    "gtk-layer-shell": true,
    "height": 0,
    "modules-left": [
        "clock",
        "custom/weather",
        "wlr/workspaces"
    ],
    "modules-center": ["hyprland/window"],
    "modules-right": [
        "tray",
        "custom/updates",
        "custom/language",
        "pulseaudio",
        "pulseaudio#microphone"
    ],

    "hyprland/window": {
        "format": "{}"
    },
    "wlr/workspaces": {
        "disable-scroll": true,
        "all-outputs": true,
        "on-click": "activate",
        //"format": "{icon}",
        "persistent_workspaces": {
            "1": [],
            "2": [],
            "3": [],
            "4": [],
            "5": [],
            "6": [],
            "7": [],
            "8": [],
            "9": [],
            "10": []
        }
    },
    "custom/updates": {
        "exec": "(checkupdates ; yay -Qua) | wc -l",
        "interval": 7200,
        "format": " {}"
    },
   "custom/weather" : {
        "tooltip" : true,
        "format" : "{}",
        "interval" : 30,
        "exec" : "~/.config/waybar/scripts/waybar-wttr.py",
        "return-type" : "json"
    },
    "tray": {
        "icon-size": 13,
        "spacing": 10
    },
    "clock": {
        "format": "{: %R   %d/%m/%y}",
        "tooltip-format": "<big>{:%Y %B}</big>\n<tt><small>{calendar}</small></tt>"
    },
    "pulseaudio": {
        "format": "{icon} {volume}%",
        "tooltip": false,
        "format-muted": " Muted",
        "on-click": "pamixer -t",
        "on-scroll-up": "pamixer -i 5",
        "on-scroll-down": "pamixer -d 5",
        "scroll-step": 5,
        "format-icons": {
            "headphone": "",
            "hands-free": "",
            "headset": "",
            "phone": "",
            "portable": "",
            "car": "",
            "default": ["", "", ""]
        }
    },
    "pulseaudio#microphone": {
        "format": "{format_source}",
        "format-source": " {volume}%",
        "format-source-muted": " Muted",
        "on-click": "pamixer --default-source -t",
        "on-scroll-up": "pamixer --default-source -i 5",
        "on-scroll-down": "pamixer --default-source -d 5",
        "scroll-step": 5
    }
}
